lab4/simulation/qsim/address_counter.msim.vcd
$comment
	File created using the following command:
		vcd file address_counter.msim.vcd -direction
$end
$date
	Thu Apr 20 13:53:43 2023
$end
$version
	ModelSim Version 10.5b
$end
$timescale
	1ps
$end

$scope module address_counter_vlg_vec_tst $end
$var reg 1 ! CLK $end
$var reg 1 " RST $end
$var wire 1 # ADDRESS [3] $end
$var wire 1 $ ADDRESS [2] $end
$var wire 1 % ADDRESS [1] $end
$var wire 1 & ADDRESS [0] $end

$scope module i1 $end
$var wire 1 ' gnd $end
$var wire 1 ( vcc $end
$var wire 1 ) unknown $end
$var tri1 1 * devclrn $end
$var tri1 1 + devpor $end
$var tri1 1 , devoe $end
$var wire 1 - ~QUARTUS_CREATED_GND~I_combout $end
$var wire 1 . CLK~input_o $end
$var wire 1 / CLK~inputCLKENA0_outclk $end
$var wire 1 0 ADDRESS[0]~3_combout $end
$var wire 1 1 RST~input_o $end
$var wire 1 2 ADDRESS[0]~reg0_q $end
$var wire 1 3 ADDRESS[1]~reg0_q $end
$var wire 1 4 ADDRESS[0]~reg0DUPLICATE_q $end
$var wire 1 5 ADDRESS[1]~0_combout $end
$var wire 1 6 ADDRESS[1]~reg0DUPLICATE_q $end
$var wire 1 7 ADDRESS[2]~1_combout $end
$var wire 1 8 ADDRESS[2]~reg0_q $end
$var wire 1 9 ADDRESS[3]~2_combout $end
$var wire 1 : ADDRESS[3]~reg0_q $end
$upscope $end
$upscope $end
$enddefinitions $end
#0
$dumpvars
0!
1"
0&
0%
0$
0#
0'
1(
x)
1*
1+
1,
0-
0.
0/
10
11
02
03
04
05
06
07
08
09
0:
$end
#12500
1!
1.
1/
14
12
1&
15
00
#25000
0!
0.
0/
#37500
1!
1.
1/
04
13
16
02
0&
1%
10
#50000
0!
0.
0/
#62500
1!
1.
1/
14
12
1&
05
17
00
#75000
0!
0.
0/
#87500
1!
1.
1/
04
03
18
06
02
0&
0%
1$
10
#100000
0!
0.
0/
#112500
1!
1.
1/
14
12
1&
15
00
#125000
0!
0.
0/
#137500
1!
1.
1/
04
13
16
02
0&
1%
10
#150000
0!
0.
0/
#162500
1!
1.
1/
14
12
1&
05
19
07
00
#175000
0!
0.
0/
#187500
1!
1.
1/
04
03
1:
08
06
02
0&
0%
0$
1#
10
#200000
0!
0.
0/
#212500
1!
1.
1/
14
12
1&
15
00
#225000
0!
0.
0/
#237500
1!
1.
1/
04
13
16
02
0&
1%
10
#250000
0!
0.
0/
#262500
1!
1.
1/
14
12
1&
05
17
00
#275000
0!
0.
0/
#287500
1!
1.
1/
04
03
18
06
02
0&
0%
1$
10
#300000
0!
0.
0/
#312500
1!
1.
1/
14
12
1&
15
00
#325000
0!
0.
0/
#337500
1!
1.
1/
04
13
16
02
0&
1%
10
#350000
0!
0.
0/
#362500
1!
1.
1/
14
12
1&
05
09
07
00
#375000
0!
0.
0/
#387500
1!
1.
1/
04
03
0:
08
06
02
0&
0%
0$
0#
10
#400000
0!
0.
0/
#412500
1!
1.
1/
14
12
1&
15
00
#425000
0!
0.
0/
#437500
1!
1.
1/
04
13
16
02
0&
1%
10
#450000
0!
0.
0/
#462500
1!
1.
1/
14
12
1&
05
17
00
#475000
0!
0.
0/
#487500
1!
1.
1/
04
03
18
06
02
0&
0%
1$
10
#500000
0!
0.
0/
#512500
1!
1.
1/
14
12
1&
15
00
#525000
0!
0.
0/
#537500
1!
1.
1/
04
13
16
02
0&
1%
10
#550000
0!
0.
0/
#562500
1!
1.
1/
14
12
1&
05
19
07
00
#575000
0!
0.
0/
#587500
1!
1.
1/
04
03
1:
08
06
02
0&
0%
0$
1#
10
#600000
0!
0.
0/
#612500
1!
1.
1/
14
12
1&
15
00
#625000
0!
0.
0/
#637500
1!
1.
1/
04
13
16
02
0&
1%
10
#650000
0!
0.
0/
#662500
1!
1.
1/
14
12
1&
05
17
00
#675000
0!
0.
0/
#687500
1!
1.
1/
04
03
18
06
02
0&
0%
1$
10
#700000
0!
0.
0/
#712500
1!
1.
1/
14
12
1&
15
00
#725000
0!
0.
0/
#737500
1!
1.
1/
04
13
16
02
0&
1%
10
#750000
0!
0.
0/
#762500
1!
1.
1/
14
12
1&
05
09
07
00
#775000
0!
0.
0/
#787500
1!
1.
1/
04
03
0:
08
06
02
0&
0%
0$
0#
10
#800000
0!
0.
0/
#812500
1!
1.
1/
14
12
1&
15
00
#825000
0!
0.
0/
#837500
1!
1.
1/
04
13
16
02
0&
1%
10
#850000
0!
0.
0/
#862500
1!
1.
1/
14
12
1&
05
17
00
#875000
0!
0.
0/
#887500
1!
1.
1/
04
03
18
06
02
0&
0%
1$
10
#900000
0!
0.
0/
#912500
1!
1.
1/
14
12
1&
15
00
#925000
0!
0.
0/
#937500
1!
1.
1/
04
13
16
02
0&
1%
10
#950000
0!
0.
0/
#962500
1!
1.
1/
14
12
1&
05
19
07
00
#975000
0!
0.
0/
#987500
1!
1.
1/
04
03
1:
08
06
02
0&
0%
0$
1#
10
