lab4/simulation/qsim/Lab4_ex1.msim.vcd
$comment
	File created using the following command:
		vcd file Lab4_ex1.msim.vcd -direction
$end
$date
	Thu Apr 20 14:41:47 2023
$end
$version
	ModelSim Version 10.5b
$end
$timescale
	1ps
$end

$scope module Lab4_ex1_vlg_vec_tst $end
$var reg 1 ! Clock $end
$var reg 9 " DIN [8:0] $end
$var reg 1 # Resetn $end
$var reg 1 $ Run $end
$var wire 1 % Bus [8] $end
$var wire 1 & Bus [7] $end
$var wire 1 ' Bus [6] $end
$var wire 1 ( Bus [5] $end
$var wire 1 ) Bus [4] $end
$var wire 1 * Bus [3] $end
$var wire 1 + Bus [2] $end
$var wire 1 , Bus [1] $end
$var wire 1 - Bus [0] $end
$var wire 1 . Done $end

$scope module i1 $end
$var wire 1 / gnd $end
$var wire 1 0 vcc $end
$var wire 1 1 unknown $end
$var tri1 1 2 devclrn $end
$var tri1 1 3 devpor $end
$var tri1 1 4 devoe $end
$var wire 1 5 ~QUARTUS_CREATED_GND~I_combout $end
$var wire 1 6 Clock~input_o $end
$var wire 1 7 Clock~inputCLKENA0_outclk $end
$var wire 1 8 DIN[3]~input_o $end
$var wire 1 9 Run~input_o $end
$var wire 1 : DIN[7]~input_o $end
$var wire 1 ; DIN[8]~input_o $end
$var wire 1 < FSM|Tstep_D.T1~0_combout $end
$var wire 1 = Resetn~input_o $end
$var wire 1 > FSM|Tstep_Q.T1~q $end
$var wire 1 ? FSM|Tstep_D.T2~0_combout $end
$var wire 1 @ FSM|Tstep_Q.T2~q $end
$var wire 1 A FSM|Tstep_Q.T3~q $end
$var wire 1 B FSM|Selector1~0_combout $end
$var wire 1 C FSM|Selector0~0_combout $end
$var wire 1 D FSM|Tstep_Q.T0~q $end
$var wire 1 E DIN[5]~input_o $end
$var wire 1 F DIN[4]~input_o $end
$var wire 1 G FSM|Selector3~0_combout $end
$var wire 1 H DIN[6]~input_o $end
$var wire 1 I select|Equal1~0_combout $end
$var wire 1 J FSM|Selector10~2_combout $end
$var wire 1 K DIN[2]~input_o $end
$var wire 1 L DIN[1]~input_o $end
$var wire 1 M DIN[0]~input_o $end
$var wire 1 N FSM|Selector10~0_combout $end
$var wire 1 O FSM|Gin~0_combout $end
$var wire 1 P FSM|Selector10~1_combout $end
$var wire 1 Q FSM|Selector10~3_combout $end
$var wire 1 R FSM|Selector10~4_combout $end
$var wire 1 S FSM|Selector15~0_combout $end
$var wire 1 T FSM|Selector11~0_combout $end
$var wire 1 U FSM|Selector15~1_combout $end
$var wire 1 V FSM|Selector9~0_combout $end
$var wire 1 W FSM|Selector13~0_combout $end
$var wire 1 X FSM|Selector17~0_combout $end
$var wire 1 Y FSM|Selector12~0_combout $end
$var wire 1 Z FSM|Selector16~0_combout $end
$var wire 1 [ FSM|Selector12~1_combout $end
$var wire 1 \ FSM|Selector16~1_combout $end
$var wire 1 ] FSM|Selector14~0_combout $end
$var wire 1 ^ FSM|Selector14~1_combout $end
$var wire 1 _ select|Equal1~1_combout $end
$var wire 1 ` FSM|Selector12~2_combout $end
$var wire 1 a FSM|Selector12~3_combout $end
$var wire 1 b FSM|Selector11~2_combout $end
$var wire 1 c FSM|Selector11~1_combout $end
$var wire 1 d FSM|Selector11~3_combout $end
$var wire 1 e FSM|Selector11~4_combout $end
$var wire 1 f FSM|Selector5~0_combout $end
$var wire 1 g FSM|Selector13~1_combout $end
$var wire 1 h select|Equal1~2_combout $end
$var wire 1 i select|Equal4~1_combout $end
$var wire 1 j FSM|Selector6~0_combout $end
$var wire 1 k select|Equal0~0_combout $end
$var wire 1 l select|Equal4~0_combout $end
$var wire 1 m select|Selector8~0_combout $end
$var wire 1 n select|Equal0~1_combout $end
$var wire 1 o select|Equal0~2_combout $end
$var wire 1 p FSM|Selector4~0_combout $end
$var wire 1 q FSM|Selector5~1_combout $end
$var wire 1 r select|Selector8~1_combout $end
$var wire 1 s FSM|Selector7~0_combout $end
$var wire 1 t FSM|Selector8~0_combout $end
$var wire 1 u select|Selector8~4_combout $end
$var wire 1 v FSM|Selector2~0_combout $end
$var wire 1 w FSM|DINout~0_combout $end
$var wire 1 x FSM|Equal1~0_combout $end
$var wire 1 y FSM|Ain~0_combout $end
$var wire 1 z ALU|Add0~38_cout $end
$var wire 1 { ALU|Add0~1_sumout $end
$var wire 1 | select|Selector8~2_combout $end
$var wire 1 } select|Equal7~0_combout $end
$var wire 1 ~ FSM|Selector9~1_combout $end
$var wire 1 !! select|Selector8~3_combout $end
$var wire 1 "! select|Selector8~5_combout $end
$var wire 1 #! select|Selector7~0_combout $end
$var wire 1 $! select|Selector7~4_combout $end
$var wire 1 %! ALU|Add0~2 $end
$var wire 1 &! ALU|Add0~5_sumout $end
$var wire 1 '! select|Selector7~2_combout $end
$var wire 1 (! select|Selector7~3_combout $end
$var wire 1 )! select|Selector7~1_combout $end
$var wire 1 *! select|Selector7~5_combout $end
$var wire 1 +! A|Q[2]~feeder_combout $end
$var wire 1 ,! ALU|Add0~6 $end
$var wire 1 -! ALU|Add0~9_sumout $end
$var wire 1 .! select|Selector6~2_combout $end
$var wire 1 /! select|Selector6~3_combout $end
$var wire 1 0! select|Selector6~0_combout $end
$var wire 1 1! R4|Q[2]~feeder_combout $end
$var wire 1 2! select|Selector6~1_combout $end
$var wire 1 3! select|Selector6~4_combout $end
$var wire 1 4! select|Selector6~5_combout $end
$var wire 1 5! A|Q[3]~feeder_combout $end
$var wire 1 6! ALU|Add0~10 $end
$var wire 1 7! ALU|Add0~13_sumout $end
$var wire 1 8! select|Selector5~2_combout $end
$var wire 1 9! select|Selector5~3_combout $end
$var wire 1 :! select|Selector5~1_combout $end
$var wire 1 ;! select|Selector5~0_combout $end
$var wire 1 <! select|Selector5~4_combout $end
$var wire 1 =! select|Selector5~5_combout $end
$var wire 1 >! A|Q[4]~feeder_combout $end
$var wire 1 ?! ALU|Add0~14 $end
$var wire 1 @! ALU|Add0~17_sumout $end
$var wire 1 A! select|Selector4~2_combout $end
$var wire 1 B! select|Selector4~3_combout $end
$var wire 1 C! select|Selector4~1_combout $end
$var wire 1 D! select|Selector4~0_combout $end
$var wire 1 E! select|Selector4~4_combout $end
$var wire 1 F! select|Selector4~5_combout $end
$var wire 1 G! select|Selector3~4_combout $end
$var wire 1 H! select|Selector3~0_combout $end
$var wire 1 I! select|Selector3~1_combout $end
$var wire 1 J! A|Q[5]~feeder_combout $end
$var wire 1 K! ALU|Add0~18 $end
$var wire 1 L! ALU|Add0~21_sumout $end
$var wire 1 M! select|Selector3~2_combout $end
$var wire 1 N! select|Selector3~3_combout $end
$var wire 1 O! select|Selector3~5_combout $end
$var wire 1 P! select|Selector2~0_combout $end
$var wire 1 Q! A|Q[6]~feeder_combout $end
$var wire 1 R! ALU|Add0~22 $end
$var wire 1 S! ALU|Add0~25_sumout $end
$var wire 1 T! select|Selector2~2_combout $end
$var wire 1 U! select|Selector2~3_combout $end
$var wire 1 V! select|Selector2~1_combout $end
$var wire 1 W! R1|Q[6]~feeder_combout $end
$var wire 1 X! select|Selector2~4_combout $end
$var wire 1 Y! select|Selector2~5_combout $end
$var wire 1 Z! select|Selector1~0_combout $end
$var wire 1 [! R4|Q[7]~feeder_combout $end
$var wire 1 \! select|Selector1~1_combout $end
$var wire 1 ]! ALU|Add0~26 $end
$var wire 1 ^! ALU|Add0~29_sumout $end
$var wire 1 _! select|Selector1~2_combout $end
$var wire 1 `! select|Selector1~3_combout $end
$var wire 1 a! select|Selector1~4_combout $end
$var wire 1 b! select|Selector1~5_combout $end
$var wire 1 c! select|Selector0~0_combout $end
$var wire 1 d! select|Selector0~1_combout $end
$var wire 1 e! R2|Q[8]~feeder_combout $end
$var wire 1 f! select|Selector0~4_combout $end
$var wire 1 g! ALU|Add0~30 $end
$var wire 1 h! ALU|Add0~33_sumout $end
$var wire 1 i! select|Selector0~2_combout $end
$var wire 1 j! select|Selector0~3_combout $end
$var wire 1 k! select|Selector0~5_combout $end
$var wire 1 l! R3|Q [8] $end
$var wire 1 m! R3|Q [7] $end
$var wire 1 n! R3|Q [6] $end
$var wire 1 o! R3|Q [5] $end
$var wire 1 p! R3|Q [4] $end
$var wire 1 q! R3|Q [3] $end
$var wire 1 r! R3|Q [2] $end
$var wire 1 s! R3|Q [1] $end
$var wire 1 t! R3|Q [0] $end
$var wire 1 u! R7|Q [8] $end
$var wire 1 v! R7|Q [7] $end
$var wire 1 w! R7|Q [6] $end
$var wire 1 x! R7|Q [5] $end
$var wire 1 y! R7|Q [4] $end
$var wire 1 z! R7|Q [3] $end
$var wire 1 {! R7|Q [2] $end
$var wire 1 |! R7|Q [1] $end
$var wire 1 }! R7|Q [0] $end
$var wire 1 ~! IR|Q [8] $end
$var wire 1 !" IR|Q [7] $end
$var wire 1 "" IR|Q [6] $end
$var wire 1 #" IR|Q [5] $end
$var wire 1 $" IR|Q [4] $end
$var wire 1 %" IR|Q [3] $end
$var wire 1 &" IR|Q [2] $end
$var wire 1 '" IR|Q [1] $end
$var wire 1 (" IR|Q [0] $end
$var wire 1 )" Q|Q [8] $end
$var wire 1 *" Q|Q [7] $end
$var wire 1 +" Q|Q [6] $end
$var wire 1 ," Q|Q [5] $end
$var wire 1 -" Q|Q [4] $end
$var wire 1 ." Q|Q [3] $end
$var wire 1 /" Q|Q [2] $end
$var wire 1 0" Q|Q [1] $end
$var wire 1 1" Q|Q [0] $end
$var wire 1 2" R6|Q [8] $end
$var wire 1 3" R6|Q [7] $end
$var wire 1 4" R6|Q [6] $end
$var wire 1 5" R6|Q [5] $end
$var wire 1 6" R6|Q [4] $end
$var wire 1 7" R6|Q [3] $end
$var wire 1 8" R6|Q [2] $end
$var wire 1 9" R6|Q [1] $end
$var wire 1 :" R6|Q [0] $end
$var wire 1 ;" R0|Q [8] $end
$var wire 1 <" R0|Q [7] $end
$var wire 1 =" R0|Q [6] $end
$var wire 1 >" R0|Q [5] $end
$var wire 1 ?" R0|Q [4] $end
$var wire 1 @" R0|Q [3] $end
$var wire 1 A" R0|Q [2] $end
$var wire 1 B" R0|Q [1] $end
$var wire 1 C" R0|Q [0] $end
$var wire 1 D" R4|Q [8] $end
$var wire 1 E" R4|Q [7] $end
$var wire 1 F" R4|Q [6] $end
$var wire 1 G" R4|Q [5] $end
$var wire 1 H" R4|Q [4] $end
$var wire 1 I" R4|Q [3] $end
$var wire 1 J" R4|Q [2] $end
$var wire 1 K" R4|Q [1] $end
$var wire 1 L" R4|Q [0] $end
$var wire 1 M" R1|Q [8] $end
$var wire 1 N" R1|Q [7] $end
$var wire 1 O" R1|Q [6] $end
$var wire 1 P" R1|Q [5] $end
$var wire 1 Q" R1|Q [4] $end
$var wire 1 R" R1|Q [3] $end
$var wire 1 S" R1|Q [2] $end
$var wire 1 T" R1|Q [1] $end
$var wire 1 U" R1|Q [0] $end
$var wire 1 V" R5|Q [8] $end
$var wire 1 W" R5|Q [7] $end
$var wire 1 X" R5|Q [6] $end
$var wire 1 Y" R5|Q [5] $end
$var wire 1 Z" R5|Q [4] $end
$var wire 1 [" R5|Q [3] $end
$var wire 1 \" R5|Q [2] $end
$var wire 1 ]" R5|Q [1] $end
$var wire 1 ^" R5|Q [0] $end
$var wire 1 _" R2|Q [8] $end
$var wire 1 `" R2|Q [7] $end
$var wire 1 a" R2|Q [6] $end
$var wire 1 b" R2|Q [5] $end
$var wire 1 c" R2|Q [4] $end
$var wire 1 d" R2|Q [3] $end
$var wire 1 e" R2|Q [2] $end
$var wire 1 f" R2|Q [1] $end
$var wire 1 g" R2|Q [0] $end
$var wire 1 h" A|Q [8] $end
$var wire 1 i" A|Q [7] $end
$var wire 1 j" A|Q [6] $end
$var wire 1 k" A|Q [5] $end
$var wire 1 l" A|Q [4] $end
$var wire 1 m" A|Q [3] $end
$var wire 1 n" A|Q [2] $end
$var wire 1 o" A|Q [1] $end
$var wire 1 p" A|Q [0] $end
$upscope $end
$upscope $end
$enddefinitions $end
#0
$dumpvars
0!
b1001000 "
1#
0$
0-
0,
0+
0*
0)
0(
0'
0&
0%
0.
0/
10
x1
12
13
14
05
06
07
18
09
0:
0;
0<
1=
0>
0?
0@
0A
1B
0C
0D
0E
0F
0G
1H
0I
0J
0K
0L
0M
0N
0O
0P
0Q
0R
0S
0T
0U
1V
1W
0X
0Y
0Z
0[
0\
0]
0^
1_
0`
0a
0b
0c
0d
1e
0f
0g
0h
0i
0j
1k
1l
0m
1n
0o
0p
0q
0r
0s
0t
0u
0v
0w
0x
0y
0z
0{
0|
0}
0~
1!!
0"!
0#!
0$!
0%!
0&!
0'!
1(!
0)!
0*!
0+!
0,!
0-!
0.!
1/!
00!
01!
02!
03!
04!
05!
06!
07!
08!
19!
0:!
0;!
0<!
0=!
0>!
0?!
0@!
0A!
1B!
0C!
0D!
0E!
0F!
0G!
0H!
0I!
0J!
0K!
0L!
0M!
1N!
0O!
0P!
0Q!
0R!
0S!
0T!
1U!
0V!
0W!
0X!
0Y!
0Z!
0[!
0\!
0]!
0^!
0_!
1`!
0a!
0b!
0c!
0d!
0e!
0f!
0g!
0h!
0i!
1j!
0k!
0t!
0s!
0r!
0q!
0p!
0o!
0n!
0m!
0l!
0}!
0|!
0{!
0z!
0y!
0x!
0w!
0v!
0u!
0("
0'"
0&"
0%"
0$"
0#"
0""
0!"
0~!
01"
00"
0/"
0."
0-"
0,"
0+"
0*"
0)"
0:"
09"
08"
07"
06"
05"
04"
03"
02"
0C"
0B"
0A"
0@"
0?"
0>"
0="
0<"
0;"
0L"
0K"
0J"
0I"
0H"
0G"
0F"
0E"
0D"
0U"
0T"
0S"
0R"
0Q"
0P"
0O"
0N"
0M"
0^"
0]"
0\"
0["
0Z"
0Y"
0X"
0W"
0V"
0g"
0f"
0e"
0d"
0c"
0b"
0a"
0`"
0_"
0p"
0o"
0n"
0m"
0l"
0k"
0j"
0i"
0h"
$end
#25000
1!
16
17
1""
1%"
0V
#50000
0!
06
07
#60000
1$
19
1<
1C
#75000
1!
16
17
1D
1>
1w
1I
0B
1?
0<
1.
1t
0?
0k
0_
0U!
09!
0C
0n
0l
1=!
1Y!
1'
1*
1W!
1S!
1Q!
17!
15!
#80000
0$
09
#100000
0!
06
07
#110000
b1000 "
b0 "
b1 "
1M
08
0H
1U!
19!
0!!
1"!
0=!
0Y!
0'
0*
1-
0W!
0S!
0Q!
07!
05!
1{
#125000
1!
16
17
1U"
0D
0>
0w
0I
1B
0.
0t
1k
1_
1!!
1n
1l
0"!
0-
0{
#150000
0!
06
07
#175000
1!
16
17
1("
0""
0%"
1V
1[
1Y
0W
#200000
0!
06
07
#225000
1!
16
17
#250000
b10001 "
0!
1F
06
07
#270000
1$
19
1<
1C
#275000
1!
16
17
1$"
1D
1>
1Q
0B
1?
0<
0V
1.
1s
0?
1\
0C
1u
0n
0_
1"!
1-
1{
#290000
0$
09
#300000
0!
06
07
#325000
1!
16
17
1g"
0D
0>
0Q
1B
0.
0s
0\
0u
1n
1_
0"!
0-
0{
#350000
0!
06
07
#375000
1!
16
17
#400000
0!
06
07
#425000
1!
16
17
#450000
0!
06
07
#475000
1!
16
17
#500000
0!
06
07
#525000
1!
16
17
#550000
0!
06
07
#575000
1!
16
17
#600000
0!
06
07
#625000
1!
16
17
#650000
0!
06
07
#675000
1!
16
17
#700000
0!
06
07
#725000
1!
16
17
#750000
0!
06
07
#775000
1!
16
17
#800000
0!
06
07
#825000
1!
16
17
#850000
0!
06
07
#875000
1!
16
17
#900000
0!
06
07
#925000
1!
16
17
#950000
0!
06
07
#975000
1!
16
17
