lab4/simulation/qsim/MyROM.msim.vcd
$comment
	File created using the following command:
		vcd file MyROM.msim.vcd -direction
$end
$date
	Thu Apr 20 14:27:04 2023
$end
$version
	ModelSim Version 10.5b
$end
$timescale
	1ps
$end

$scope module MyROM_vlg_vec_tst $end
$var reg 5 ! ADDRESS [4:0] $end
$var reg 1 " CLK $end
$var wire 1 # DATAOUT [8] $end
$var wire 1 $ DATAOUT [7] $end
$var wire 1 % DATAOUT [6] $end
$var wire 1 & DATAOUT [5] $end
$var wire 1 ' DATAOUT [4] $end
$var wire 1 ( DATAOUT [3] $end
$var wire 1 ) DATAOUT [2] $end
$var wire 1 * DATAOUT [1] $end
$var wire 1 + DATAOUT [0] $end

$scope module i1 $end
$var wire 1 , gnd $end
$var wire 1 - vcc $end
$var wire 1 . unknown $end
$var tri1 1 / devclrn $end
$var tri1 1 0 devpor $end
$var tri1 1 1 devoe $end
$var wire 1 2 ~QUARTUS_CREATED_GND~I_combout $end
$var wire 1 3 CLK~input_o $end
$var wire 1 4 CLK~inputCLKENA0_outclk $end
$var wire 1 5 ADDRESS[0]~input_o $end
$var wire 1 6 ADDRESS[4]~input_o $end
$var wire 1 7 ADDRESS[3]~input_o $end
$var wire 1 8 ADDRESS[1]~input_o $end
$var wire 1 9 ADDRESS[2]~input_o $end
$var wire 1 : rom~0_combout $end
$var wire 1 ; DATAOUT[0]~reg0_q $end
$var wire 1 < rom~1_combout $end
$var wire 1 = DATAOUT[1]~reg0_q $end
$var wire 1 > rom~2_combout $end
$var wire 1 ? DATAOUT[2]~reg0_q $end
$var wire 1 @ rom~3_combout $end
$var wire 1 A DATAOUT[3]~reg0_q $end
$var wire 1 B rom~4_combout $end
$var wire 1 C DATAOUT[4]~reg0_q $end
$var wire 1 D rom~5_combout $end
$var wire 1 E DATAOUT[5]~reg0_q $end
$var wire 1 F rom~6_combout $end
$var wire 1 G DATAOUT[6]~reg0_q $end
$var wire 1 H rom~7_combout $end
$var wire 1 I DATAOUT[7]~reg0_q $end
$var wire 1 J rom~8_combout $end
$var wire 1 K DATAOUT[8]~reg0_q $end
$upscope $end
$upscope $end
$enddefinitions $end
#0
$dumpvars
b0 !
0"
0+
0*
0)
0(
0'
0&
0%
0$
0#
0,
1-
x.
1/
10
11
02
03
04
05
06
07
08
09
0:
0;
1<
0=
1>
0?
1@
0A
0B
0C
1D
0E
1F
0G
0H
0I
0J
0K
$end
#25000
1"
13
14
1G
1E
1A
1?
1=
1*
1)
1(
1&
1%
#50000
0"
03
04
#75000
1"
13
14
#100000
0"
03
04
#125000
1"
13
14
#150000
0"
03
04
#175000
1"
13
14
#200000
0"
03
04
#225000
1"
13
14
#250000
0"
03
04
#275000
1"
13
14
#300000
0"
03
04
#325000
1"
13
14
#350000
0"
03
04
#375000
1"
13
14
#400000
0"
03
04
#425000
1"
13
14
#450000
0"
03
04
#475000
1"
13
14
#500000
b1 !
0"
15
03
04
1J
0F
0D
1B
0@
1:
#525000
1"
13
14
1K
0G
0E
1C
0A
1;
1+
0(
1'
0&
0%
1#
#550000
0"
03
04
#575000
1"
13
14
#600000
0"
03
04
#625000
1"
13
14
#650000
0"
03
04
#675000
1"
13
14
#700000
0"
03
04
#725000
1"
13
14
#750000
0"
03
04
#775000
1"
13
14
#800000
0"
03
04
#825000
1"
13
14
#850000
0"
03
04
#875000
1"
13
14
#900000
0"
03
04
#925000
1"
13
14
#950000
0"
03
04
#975000
1"
13
14
